Code/transcript
# Compile of TBFreeCapacityIncrease.v was successful.
# Load canceled
# Load canceled
# Compile of TBFreeCapacityIncrease.v was successful.
vsim -gui work.TBFreeCapacityIncrease
# vsim -gui work.TBFreeCapacityIncrease 
# Start time: 23:14:56 on Jun 27,2024
# Loading work.TBFreeCapacityIncrease
# Loading work.Parking
add wave -position insertpoint sim:/TBFreeCapacityIncrease/*
run
#                    0) hour =  8 || uni por =    0, khali =  500, iskhali = 1 | free por =    0, khali =  200, iskhali = 1 | janist = 0, exitna = 0
#                   12) hour =  8 || uni por =    0, khali =  500, iskhali = 1 | free por =    1, khali =  199, iskhali = 1 | janist = 0, exitna = 0
#                   22) hour =  8 || uni por =    1, khali =  499, iskhali = 1 | free por =    1, khali =  199, iskhali = 1 | janist = 0, exitna = 0
#                   32) hour =  8 || uni por =    1, khali =  499, iskhali = 1 | free por =    2, khali =  198, iskhali = 1 | janist = 0, exitna = 0
#                   42) hour =  8 || uni por =    1, khali =  499, iskhali = 1 | free por =    3, khali =  197, iskhali = 1 | janist = 0, exitna = 0
#                   52) hour =  8 || uni por =    2, khali =  498, iskhali = 1 | free por =    3, khali =  197, iskhali = 1 | janist = 0, exitna = 0
#                   62) hour =  8 || uni por =    2, khali =  498, iskhali = 1 | free por =    4, khali =  196, iskhali = 1 | janist = 0, exitna = 0
#                   72) hour =  8 || uni por =    2, khali =  498, iskhali = 1 | free por =    5, khali =  195, iskhali = 1 | janist = 0, exitna = 0
#                   82) hour =  8 || uni por =    3, khali =  497, iskhali = 1 | free por =    5, khali =  195, iskhali = 1 | janist = 0, exitna = 0
#                   92) hour =  8 || uni por =    3, khali =  497, iskhali = 1 | free por =    6, khali =  194, iskhali = 1 | janist = 0, exitna = 0
run -all
#                  102) hour =  8 || uni por =    3, khali =  497, iskhali = 1 | free por =    7, khali =  193, iskhali = 1 | janist = 0, exitna = 0
#                  112) hour =  8 || uni por =    4, khali =  496, iskhali = 1 | free por =    7, khali =  193, iskhali = 1 | janist = 0, exitna = 0
#                  122) hour =  8 || uni por =    4, khali =  496, iskhali = 1 | free por =    8, khali =  192, iskhali = 1 | janist = 0, exitna = 0
#                  132) hour =  8 || uni por =    4, khali =  496, iskhali = 1 | free por =    9, khali =  191, iskhali = 1 | janist = 0, exitna = 0
#                  142) hour =  8 || uni por =    5, khali =  495, iskhali = 1 | free por =    9, khali =  191, iskhali = 1 | janist = 0, exitna = 0
#                  152) hour =  8 || uni por =    5, khali =  495, iskhali = 1 | free por =   10, khali =  190, iskhali = 1 | janist = 0, exitna = 0
#                  162) hour =  8 || uni por =    5, khali =  495, iskhali = 1 | free por =   11, khali =  189, iskhali = 1 | janist = 0, exitna = 0
#                  172) hour =  8 || uni por =    6, khali =  494, iskhali = 1 | free por =   11, khali =  189, iskhali = 1 | janist = 0, exitna = 0
#                  182) hour =  8 || uni por =    6, khali =  494, iskhali = 1 | free por =   12, khali =  188, iskhali = 1 | janist = 0, exitna = 0
#                  192) hour =  8 || uni por =    6, khali =  494, iskhali = 1 | free por =   13, khali =  187, iskhali = 1 | janist = 0, exitna = 0
#                  202) hour =  8 || uni por =    7, khali =  493, iskhali = 1 | free por =   13, khali =  187, iskhali = 1 | janist = 0, exitna = 0
#                  212) hour =  8 || uni por =    7, khali =  493, iskhali = 1 | free por =   14, khali =  186, iskhali = 1 | janist = 0, exitna = 0
#                  222) hour =  8 || uni por =    7, khali =  493, iskhali = 1 | free por =   15, khali =  185, iskhali = 1 | janist = 0, exitna = 0
#                  232) hour =  8 || uni por =    8, khali =  492, iskhali = 1 | free por =   15, khali =  185, iskhali = 1 | janist = 0, exitna = 0
#                  242) hour =  8 || uni por =    8, khali =  492, iskhali = 1 | free por =   16, khali =  184, iskhali = 1 | janist = 0, exitna = 0
#                  252) hour =  8 || uni por =    8, khali =  492, iskhali = 1 | free por =   17, khali =  183, iskhali = 1 | janist = 0, exitna = 0
#                  262) hour =  8 || uni por =    9, khali =  491, iskhali = 1 | free por =   17, khali =  183, iskhali = 1 | janist = 0, exitna = 0
#                  272) hour =  8 || uni por =    9, khali =  491, iskhali = 1 | free por =   18, khali =  182, iskhali = 1 | janist = 0, exitna = 0
#                  282) hour =  8 || uni por =    9, khali =  491, iskhali = 1 | free por =   19, khali =  181, iskhali = 1 | janist = 0, exitna = 0
#                  292) hour =  8 || uni por =   10, khali =  490, iskhali = 1 | free por =   19, khali =  181, iskhali = 1 | janist = 0, exitna = 0
#                  302) hour =  8 || uni por =   10, khali =  490, iskhali = 1 | free por =   20, khali =  180, iskhali = 1 | janist = 0, exitna = 0
#                  312) hour =  8 || uni por =   10, khali =  490, iskhali = 1 | free por =   21, khali =  179, iskhali = 1 | janist = 0, exitna = 0
#                  322) hour =  8 || uni por =   11, khali =  489, iskhali = 1 | free por =   21, khali =  179, iskhali = 1 | janist = 0, exitna = 0
#                  332) hour =  8 || uni por =   11, khali =  489, iskhali = 1 | free por =   22, khali =  178, iskhali = 1 | janist = 0, exitna = 0
#                  342) hour =  8 || uni por =   11, khali =  489, iskhali = 1 | free por =   23, khali =  177, iskhali = 1 | janist = 0, exitna = 0
#                  352) hour =  8 || uni por =   12, khali =  488, iskhali = 1 | free por =   23, khali =  177, iskhali = 1 | janist = 0, exitna = 0
#                  362) hour =  8 || uni por =   12, khali =  488, iskhali = 1 | free por =   24, khali =  176, iskhali = 1 | janist = 0, exitna = 0
#                  372) hour =  8 || uni por =   12, khali =  488, iskhali = 1 | free por =   25, khali =  175, iskhali = 1 | janist = 0, exitna = 0
#                  382) hour =  8 || uni por =   13, khali =  487, iskhali = 1 | free por =   25, khali =  175, iskhali = 1 | janist = 0, exitna = 0
#                  392) hour =  8 || uni por =   13, khali =  487, iskhali = 1 | free por =   26, khali =  174, iskhali = 1 | janist = 0, exitna = 0
#                  402) hour =  8 || uni por =   13, khali =  487, iskhali = 1 | free por =   27, khali =  173, iskhali = 1 | janist = 0, exitna = 0
#                  412) hour =  8 || uni por =   14, khali =  486, iskhali = 1 | free por =   27, khali =  173, iskhali = 1 | janist = 0, exitna = 0
#                  422) hour =  8 || uni por =   14, khali =  486, iskhali = 1 | free por =   28, khali =  172, iskhali = 1 | janist = 0, exitna = 0
#                  432) hour =  8 || uni por =   14, khali =  486, iskhali = 1 | free por =   29, khali =  171, iskhali = 1 | janist = 0, exitna = 0
#                  442) hour =  8 || uni por =   15, khali =  485, iskhali = 1 | free por =   29, khali =  171, iskhali = 1 | janist = 0, exitna = 0
#                  452) hour =  8 || uni por =   15, khali =  485, iskhali = 1 | free por =   30, khali =  170, iskhali = 1 | janist = 0, exitna = 0
#                  462) hour =  8 || uni por =   15, khali =  485, iskhali = 1 | free por =   31, khali =  169, iskhali = 1 | janist = 0, exitna = 0
#                  472) hour =  8 || uni por =   16, khali =  484, iskhali = 1 | free por =   31, khali =  169, iskhali = 1 | janist = 0, exitna = 0
#                  482) hour =  8 || uni por =   16, khali =  484, iskhali = 1 | free por =   32, khali =  168, iskhali = 1 | janist = 0, exitna = 0
#                  492) hour =  8 || uni por =   16, khali =  484, iskhali = 1 | free por =   33, khali =  167, iskhali = 1 | janist = 0, exitna = 0
#                  502) hour =  8 || uni por =   17, khali =  483, iskhali = 1 | free por =   33, khali =  167, iskhali = 1 | janist = 0, exitna = 0
#                  512) hour =  8 || uni por =   17, khali =  483, iskhali = 1 | free por =   34, khali =  166, iskhali = 1 | janist = 0, exitna = 0
#                  522) hour =  8 || uni por =   17, khali =  483, iskhali = 1 | free por =   35, khali =  165, iskhali = 1 | janist = 0, exitna = 0
#                  532) hour =  8 || uni por =   18, khali =  482, iskhali = 1 | free por =   35, khali =  165, iskhali = 1 | janist = 0, exitna = 0
#                  542) hour =  8 || uni por =   18, khali =  482, iskhali = 1 | free por =   36, khali =  164, iskhali = 1 | janist = 0, exitna = 0
#                  552) hour =  8 || uni por =   18, khali =  482, iskhali = 1 | free por =   37, khali =  163, iskhali = 1 | janist = 0, exitna = 0
#                  562) hour =  8 || uni por =   19, khali =  481, iskhali = 1 | free por =   37, khali =  163, iskhali = 1 | janist = 0, exitna = 0
#                  572) hour =  8 || uni por =   19, khali =  481, iskhali = 1 | free por =   38, khali =  162, iskhali = 1 | janist = 0, exitna = 0
#                  582) hour =  8 || uni por =   19, khali =  481, iskhali = 1 | free por =   39, khali =  161, iskhali = 1 | janist = 0, exitna = 0
#                  592) hour =  8 || uni por =   20, khali =  480, iskhali = 1 | free por =   39, khali =  161, iskhali = 1 | janist = 0, exitna = 0
#                  602) hour =  8 || uni por =   20, khali =  480, iskhali = 1 | free por =   40, khali =  160, iskhali = 1 | janist = 0, exitna = 0
#                  612) hour =  8 || uni por =   20, khali =  480, iskhali = 1 | free por =   41, khali =  159, iskhali = 1 | janist = 0, exitna = 0
#                  622) hour =  8 || uni por =   21, khali =  479, iskhali = 1 | free por =   41, khali =  159, iskhali = 1 | janist = 0, exitna = 0
#                  632) hour =  8 || uni por =   21, khali =  479, iskhali = 1 | free por =   42, khali =  158, iskhali = 1 | janist = 0, exitna = 0
#                  642) hour =  8 || uni por =   21, khali =  479, iskhali = 1 | free por =   43, khali =  157, iskhali = 1 | janist = 0, exitna = 0
#                  652) hour =  8 || uni por =   22, khali =  478, iskhali = 1 | free por =   43, khali =  157, iskhali = 1 | janist = 0, exitna = 0
#                  662) hour =  8 || uni por =   22, khali =  478, iskhali = 1 | free por =   44, khali =  156, iskhali = 1 | janist = 0, exitna = 0
#                  672) hour =  8 || uni por =   22, khali =  478, iskhali = 1 | free por =   45, khali =  155, iskhali = 1 | janist = 0, exitna = 0
#                  682) hour =  8 || uni por =   23, khali =  477, iskhali = 1 | free por =   45, khali =  155, iskhali = 1 | janist = 0, exitna = 0
#                  692) hour =  8 || uni por =   23, khali =  477, iskhali = 1 | free por =   46, khali =  154, iskhali = 1 | janist = 0, exitna = 0
#                  702) hour =  8 || uni por =   23, khali =  477, iskhali = 1 | free por =   47, khali =  153, iskhali = 1 | janist = 0, exitna = 0
#                  712) hour =  8 || uni por =   24, khali =  476, iskhali = 1 | free por =   47, khali =  153, iskhali = 1 | janist = 0, exitna = 0
#                  722) hour =  8 || uni por =   24, khali =  476, iskhali = 1 | free por =   48, khali =  152, iskhali = 1 | janist = 0, exitna = 0
#                  732) hour =  8 || uni por =   24, khali =  476, iskhali = 1 | free por =   49, khali =  151, iskhali = 1 | janist = 0, exitna = 0
#                  742) hour =  8 || uni por =   25, khali =  475, iskhali = 1 | free por =   49, khali =  151, iskhali = 1 | janist = 0, exitna = 0
#                  752) hour =  8 || uni por =   25, khali =  475, iskhali = 1 | free por =   50, khali =  150, iskhali = 1 | janist = 0, exitna = 0
#                  762) hour =  8 || uni por =   25, khali =  475, iskhali = 1 | free por =   51, khali =  149, iskhali = 1 | janist = 0, exitna = 0
#                  772) hour =  8 || uni por =   26, khali =  474, iskhali = 1 | free por =   51, khali =  149, iskhali = 1 | janist = 0, exitna = 0
#                  782) hour =  8 || uni por =   26, khali =  474, iskhali = 1 | free por =   52, khali =  148, iskhali = 1 | janist = 0, exitna = 0
#                  792) hour =  8 || uni por =   26, khali =  474, iskhali = 1 | free por =   53, khali =  147, iskhali = 1 | janist = 0, exitna = 0
#                  802) hour =  8 || uni por =   27, khali =  473, iskhali = 1 | free por =   53, khali =  147, iskhali = 1 | janist = 0, exitna = 0
#                  812) hour =  8 || uni por =   27, khali =  473, iskhali = 1 | free por =   54, khali =  146, iskhali = 1 | janist = 0, exitna = 0
#                  822) hour =  8 || uni por =   27, khali =  473, iskhali = 1 | free por =   55, khali =  145, iskhali = 1 | janist = 0, exitna = 0
#                  832) hour =  8 || uni por =   28, khali =  472, iskhali = 1 | free por =   55, khali =  145, iskhali = 1 | janist = 0, exitna = 0
#                  842) hour =  8 || uni por =   28, khali =  472, iskhali = 1 | free por =   56, khali =  144, iskhali = 1 | janist = 0, exitna = 0
#                  852) hour =  8 || uni por =   28, khali =  472, iskhali = 1 | free por =   57, khali =  143, iskhali = 1 | janist = 0, exitna = 0
#                  862) hour =  8 || uni por =   29, khali =  471, iskhali = 1 | free por =   57, khali =  143, iskhali = 1 | janist = 0, exitna = 0
#                  872) hour =  8 || uni por =   29, khali =  471, iskhali = 1 | free por =   58, khali =  142, iskhali = 1 | janist = 0, exitna = 0
#                  882) hour =  8 || uni por =   29, khali =  471, iskhali = 1 | free por =   59, khali =  141, iskhali = 1 | janist = 0, exitna = 0
#                  892) hour =  8 || uni por =   30, khali =  470, iskhali = 1 | free por =   59, khali =  141, iskhali = 1 | janist = 0, exitna = 0
#                  902) hour =  8 || uni por =   30, khali =  470, iskhali = 1 | free por =   60, khali =  140, iskhali = 1 | janist = 0, exitna = 0
#                  912) hour =  8 || uni por =   30, khali =  470, iskhali = 1 | free por =   61, khali =  139, iskhali = 1 | janist = 0, exitna = 0
#                  922) hour =  8 || uni por =   31, khali =  469, iskhali = 1 | free por =   61, khali =  139, iskhali = 1 | janist = 0, exitna = 0
#                  932) hour =  8 || uni por =   31, khali =  469, iskhali = 1 | free por =   62, khali =  138, iskhali = 1 | janist = 0, exitna = 0
#                  942) hour =  8 || uni por =   31, khali =  469, iskhali = 1 | free por =   63, khali =  137, iskhali = 1 | janist = 0, exitna = 0
#                  952) hour =  8 || uni por =   32, khali =  468, iskhali = 1 | free por =   63, khali =  137, iskhali = 1 | janist = 0, exitna = 0
#                  962) hour =  8 || uni por =   32, khali =  468, iskhali = 1 | free por =   64, khali =  136, iskhali = 1 | janist = 0, exitna = 0
#                  972) hour =  8 || uni por =   32, khali =  468, iskhali = 1 | free por =   65, khali =  135, iskhali = 1 | janist = 0, exitna = 0
#                  982) hour =  8 || uni por =   33, khali =  467, iskhali = 1 | free por =   65, khali =  135, iskhali = 1 | janist = 0, exitna = 0
#                  992) hour =  8 || uni por =   33, khali =  467, iskhali = 1 | free por =   66, khali =  134, iskhali = 1 | janist = 0, exitna = 0
#                 1001) hour =  9 || uni por =   33, khali =  467, iskhali = 1 | free por =   66, khali =  134, iskhali = 1 | janist = 0, exitna = 0
#                 1002) hour =  9 || uni por =   33, khali =  467, iskhali = 1 | free por =   67, khali =  133, iskhali = 1 | janist = 0, exitna = 0
#                 1012) hour =  9 || uni por =   34, khali =  466, iskhali = 1 | free por =   67, khali =  133, iskhali = 1 | janist = 0, exitna = 0
#                 1022) hour =  9 || uni por =   34, khali =  466, iskhali = 1 | free por =   68, khali =  132, iskhali = 1 | janist = 0, exitna = 0
#                 1032) hour =  9 || uni por =   34, khali =  466, iskhali = 1 | free por =   69, khali =  131, iskhali = 1 | janist = 0, exitna = 0
#                 1042) hour =  9 || uni por =   35, khali =  465, iskhali = 1 | free por =   69, khali =  131, iskhali = 1 | janist = 0, exitna = 0
#                 1052) hour =  9 || uni por =   35, khali =  465, iskhali = 1 | free por =   70, khali =  130, iskhali = 1 | janist = 0, exitna = 0
#                 1062) hour =  9 || uni por =   35, khali =  465, iskhali = 1 | free por =   71, khali =  129, iskhali = 1 | janist = 0, exitna = 0
#                 1072) hour =  9 || uni por =   36, khali =  464, iskhali = 1 | free por =   71, khali =  129, iskhali = 1 | janist = 0, exitna = 0
#                 1082) hour =  9 || uni por =   36, khali =  464, iskhali = 1 | free por =   72, khali =  128, iskhali = 1 | janist = 0, exitna = 0
#                 1092) hour =  9 || uni por =   36, khali =  464, iskhali = 1 | free por =   73, khali =  127, iskhali = 1 | janist = 0, exitna = 0
#                 1102) hour =  9 || uni por =   37, khali =  463, iskhali = 1 | free por =   73, khali =  127, iskhali = 1 | janist = 0, exitna = 0
#                 1112) hour =  9 || uni por =   37, khali =  463, iskhali = 1 | free por =   74, khali =  126, iskhali = 1 | janist = 0, exitna = 0
#                 1122) hour =  9 || uni por =   37, khali =  463, iskhali = 1 | free por =   75, khali =  125, iskhali = 1 | janist = 0, exitna = 0
#                 1132) hour =  9 || uni por =   38, khali =  462, iskhali = 1 | free por =   75, khali =  125, iskhali = 1 | janist = 0, exitna = 0
#                 1142) hour =  9 || uni por =   38, khali =  462, iskhali = 1 | free por =   76, khali =  124, iskhali = 1 | janist = 0, exitna = 0
#                 1152) hour =  9 || uni por =   38, khali =  462, iskhali = 1 | free por =   77, khali =  123, iskhali = 1 | janist = 0, exitna = 0
#                 1162) hour =  9 || uni por =   39, khali =  461, iskhali = 1 | free por =   77, khali =  123, iskhali = 1 | janist = 0, exitna = 0
#                 1172) hour =  9 || uni por =   39, khali =  461, iskhali = 1 | free por =   78, khali =  122, iskhali = 1 | janist = 0, exitna = 0
#                 1182) hour =  9 || uni por =   39, khali =  461, iskhali = 1 | free por =   79, khali =  121, iskhali = 1 | janist = 0, exitna = 0
#                 1192) hour =  9 || uni por =   40, khali =  460, iskhali = 1 | free por =   79, khali =  121, iskhali = 1 | janist = 0, exitna = 0
#                 1202) hour =  9 || uni por =   40, khali =  460, iskhali = 1 | free por =   80, khali =  120, iskhali = 1 | janist = 0, exitna = 0
#                 1212) hour =  9 || uni por =   40, khali =  460, iskhali = 1 | free por =   81, khali =  119, iskhali = 1 | janist = 0, exitna = 0
#                 1222) hour =  9 || uni por =   41, khali =  459, iskhali = 1 | free por =   81, khali =  119, iskhali = 1 | janist = 0, exitna = 0
#                 1232) hour =  9 || uni por =   41, khali =  459, iskhali = 1 | free por =   82, khali =  118, iskhali = 1 | janist = 0, exitna = 0
#                 1242) hour =  9 || uni por =   41, khali =  459, iskhali = 1 | free por =   83, khali =  117, iskhali = 1 | janist = 0, exitna = 0
#                 1252) hour =  9 || uni por =   42, khali =  458, iskhali = 1 | free por =   83, khali =  117, iskhali = 1 | janist = 0, exitna = 0
#                 1262) hour =  9 || uni por =   42, khali =  458, iskhali = 1 | free por =   84, khali =  116, iskhali = 1 | janist = 0, exitna = 0
#                 1272) hour =  9 || uni por =   42, khali =  458, iskhali = 1 | free por =   85, khali =  115, iskhali = 1 | janist = 0, exitna = 0
#                 1282) hour =  9 || uni por =   43, khali =  457, iskhali = 1 | free por =   85, khali =  115, iskhali = 1 | janist = 0, exitna = 0
#                 1292) hour =  9 || uni por =   43, khali =  457, iskhali = 1 | free por =   86, khali =  114, iskhali = 1 | janist = 0, exitna = 0
#                 1302) hour =  9 || uni por =   43, khali =  457, iskhali = 1 | free por =   87, khali =  113, iskhali = 1 | janist = 0, exitna = 0
#                 1312) hour =  9 || uni por =   44, khali =  456, iskhali = 1 | free por =   87, khali =  113, iskhali = 1 | janist = 0, exitna = 0
#                 1322) hour =  9 || uni por =   44, khali =  456, iskhali = 1 | free por =   88, khali =  112, iskhali = 1 | janist = 0, exitna = 0
#                 1332) hour =  9 || uni por =   44, khali =  456, iskhali = 1 | free por =   89, khali =  111, iskhali = 1 | janist = 0, exitna = 0
#                 1342) hour =  9 || uni por =   45, khali =  455, iskhali = 1 | free por =   89, khali =  111, iskhali = 1 | janist = 0, exitna = 0
#                 1352) hour =  9 || uni por =   45, khali =  455, iskhali = 1 | free por =   90, khali =  110, iskhali = 1 | janist = 0, exitna = 0
#                 1362) hour =  9 || uni por =   45, khali =  455, iskhali = 1 | free por =   91, khali =  109, iskhali = 1 | janist = 0, exitna = 0
#                 1372) hour =  9 || uni por =   46, khali =  454, iskhali = 1 | free por =   91, khali =  109, iskhali = 1 | janist = 0, exitna = 0
#                 1382) hour =  9 || uni por =   46, khali =  454, iskhali = 1 | free por =   92, khali =  108, iskhali = 1 | janist = 0, exitna = 0
#                 1392) hour =  9 || uni por =   46, khali =  454, iskhali = 1 | free por =   93, khali =  107, iskhali = 1 | janist = 0, exitna = 0
#                 1402) hour =  9 || uni por =   47, khali =  453, iskhali = 1 | free por =   93, khali =  107, iskhali = 1 | janist = 0, exitna = 0
#                 1412) hour =  9 || uni por =   47, khali =  453, iskhali = 1 | free por =   94, khali =  106, iskhali = 1 | janist = 0, exitna = 0
#                 1422) hour =  9 || uni por =   47, khali =  453, iskhali = 1 | free por =   95, khali =  105, iskhali = 1 | janist = 0, exitna = 0
#                 1432) hour =  9 || uni por =   48, khali =  452, iskhali = 1 | free por =   95, khali =  105, iskhali = 1 | janist = 0, exitna = 0
#                 1442) hour =  9 || uni por =   48, khali =  452, iskhali = 1 | free por =   96, khali =  104, iskhali = 1 | janist = 0, exitna = 0
#                 1452) hour =  9 || uni por =   48, khali =  452, iskhali = 1 | free por =   97, khali =  103, iskhali = 1 | janist = 0, exitna = 0
#                 1462) hour =  9 || uni por =   49, khali =  451, iskhali = 1 | free por =   97, khali =  103, iskhali = 1 | janist = 0, exitna = 0
#                 1472) hour =  9 || uni por =   49, khali =  451, iskhali = 1 | free por =   98, khali =  102, iskhali = 1 | janist = 0, exitna = 0
#                 1482) hour =  9 || uni por =   49, khali =  451, iskhali = 1 | free por =   99, khali =  101, iskhali = 1 | janist = 0, exitna = 0
#                 1492) hour =  9 || uni por =   50, khali =  450, iskhali = 1 | free por =   99, khali =  101, iskhali = 1 | janist = 0, exitna = 0
#                 1502) hour =  9 || uni por =   50, khali =  450, iskhali = 1 | free por =  100, khali =  100, iskhali = 1 | janist = 0, exitna = 0
#                 1512) hour =  9 || uni por =   50, khali =  450, iskhali = 1 | free por =  101, khali =   99, iskhali = 1 | janist = 0, exitna = 0
#                 1522) hour =  9 || uni por =   51, khali =  449, iskhali = 1 | free por =  101, khali =   99, iskhali = 1 | janist = 0, exitna = 0
#                 1532) hour =  9 || uni por =   51, khali =  449, iskhali = 1 | free por =  102, khali =   98, iskhali = 1 | janist = 0, exitna = 0
#                 1542) hour =  9 || uni por =   51, khali =  449, iskhali = 1 | free por =  103, khali =   97, iskhali = 1 | janist = 0, exitna = 0
#                 1552) hour =  9 || uni por =   52, khali =  448, iskhali = 1 | free por =  103, khali =   97, iskhali = 1 | janist = 0, exitna = 0
#                 1562) hour =  9 || uni por =   52, khali =  448, iskhali = 1 | free por =  104, khali =   96, iskhali = 1 | janist = 0, exitna = 0
#                 1572) hour =  9 || uni por =   52, khali =  448, iskhali = 1 | free por =  105, khali =   95, iskhali = 1 | janist = 0, exitna = 0
#                 1582) hour =  9 || uni por =   53, khali =  447, iskhali = 1 | free por =  105, khali =   95, iskhali = 1 | janist = 0, exitna = 0
#                 1592) hour =  9 || uni por =   53, khali =  447, iskhali = 1 | free por =  106, khali =   94, iskhali = 1 | janist = 0, exitna = 0
#                 1602) hour =  9 || uni por =   53, khali =  447, iskhali = 1 | free por =  107, khali =   93, iskhali = 1 | janist = 0, exitna = 0
#                 1612) hour =  9 || uni por =   54, khali =  446, iskhali = 1 | free por =  107, khali =   93, iskhali = 1 | janist = 0, exitna = 0
#                 1622) hour =  9 || uni por =   54, khali =  446, iskhali = 1 | free por =  108, khali =   92, iskhali = 1 | janist = 0, exitna = 0
#                 1632) hour =  9 || uni por =   54, khali =  446, iskhali = 1 | free por =  109, khali =   91, iskhali = 1 | janist = 0, exitna = 0
#                 1642) hour =  9 || uni por =   55, khali =  445, iskhali = 1 | free por =  109, khali =   91, iskhali = 1 | janist = 0, exitna = 0
#                 1652) hour =  9 || uni por =   55, khali =  445, iskhali = 1 | free por =  110, khali =   90, iskhali = 1 | janist = 0, exitna = 0
#                 1662) hour =  9 || uni por =   55, khali =  445, iskhali = 1 | free por =  111, khali =   89, iskhali = 1 | janist = 0, exitna = 0
#                 1672) hour =  9 || uni por =   56, khali =  444, iskhali = 1 | free por =  111, khali =   89, iskhali = 1 | janist = 0, exitna = 0
#                 1682) hour =  9 || uni por =   56, khali =  444, iskhali = 1 | free por =  112, khali =   88, iskhali = 1 | janist = 0, exitna = 0
#                 1692) hour =  9 || uni por =   56, khali =  444, iskhali = 1 | free por =  113, khali =   87, iskhali = 1 | janist = 0, exitna = 0
#                 1702) hour =  9 || uni por =   57, khali =  443, iskhali = 1 | free por =  113, khali =   87, iskhali = 1 | janist = 0, exitna = 0
#                 1712) hour =  9 || uni por =   57, khali =  443, iskhali = 1 | free por =  114, khali =   86, iskhali = 1 | janist = 0, exitna = 0
#                 1722) hour =  9 || uni por =   57, khali =  443, iskhali = 1 | free por =  115, khali =   85, iskhali = 1 | janist = 0, exitna = 0
#                 1732) hour =  9 || uni por =   58, khali =  442, iskhali = 1 | free por =  115, khali =   85, iskhali = 1 | janist = 0, exitna = 0
#                 1742) hour =  9 || uni por =   58, khali =  442, iskhali = 1 | free por =  116, khali =   84, iskhali = 1 | janist = 0, exitna = 0
#                 1752) hour =  9 || uni por =   58, khali =  442, iskhali = 1 | free por =  117, khali =   83, iskhali = 1 | janist = 0, exitna = 0
#                 1762) hour =  9 || uni por =   59, khali =  441, iskhali = 1 | free por =  117, khali =   83, iskhali = 1 | janist = 0, exitna = 0
#                 1772) hour =  9 || uni por =   59, khali =  441, iskhali = 1 | free por =  118, khali =   82, iskhali = 1 | janist = 0, exitna = 0
#                 1782) hour =  9 || uni por =   59, khali =  441, iskhali = 1 | free por =  119, khali =   81, iskhali = 1 | janist = 0, exitna = 0
#                 1792) hour =  9 || uni por =   60, khali =  440, iskhali = 1 | free por =  119, khali =   81, iskhali = 1 | janist = 0, exitna = 0
#                 1802) hour =  9 || uni por =   60, khali =  440, iskhali = 1 | free por =  120, khali =   80, iskhali = 1 | janist = 0, exitna = 0
#                 1812) hour =  9 || uni por =   60, khali =  440, iskhali = 1 | free por =  121, khali =   79, iskhali = 1 | janist = 0, exitna = 0
#                 1822) hour =  9 || uni por =   61, khali =  439, iskhali = 1 | free por =  121, khali =   79, iskhali = 1 | janist = 0, exitna = 0
#                 1832) hour =  9 || uni por =   61, khali =  439, iskhali = 1 | free por =  122, khali =   78, iskhali = 1 | janist = 0, exitna = 0
#                 1842) hour =  9 || uni por =   61, khali =  439, iskhali = 1 | free por =  123, khali =   77, iskhali = 1 | janist = 0, exitna = 0
#                 1852) hour =  9 || uni por =   62, khali =  438, iskhali = 1 | free por =  123, khali =   77, iskhali = 1 | janist = 0, exitna = 0
#                 1862) hour =  9 || uni por =   62, khali =  438, iskhali = 1 | free por =  124, khali =   76, iskhali = 1 | janist = 0, exitna = 0
#                 1872) hour =  9 || uni por =   62, khali =  438, iskhali = 1 | free por =  125, khali =   75, iskhali = 1 | janist = 0, exitna = 0
#                 1882) hour =  9 || uni por =   63, khali =  437, iskhali = 1 | free por =  125, khali =   75, iskhali = 1 | janist = 0, exitna = 0
#                 1892) hour =  9 || uni por =   63, khali =  437, iskhali = 1 | free por =  126, khali =   74, iskhali = 1 | janist = 0, exitna = 0
#                 1902) hour =  9 || uni por =   63, khali =  437, iskhali = 1 | free por =  127, khali =   73, iskhali = 1 | janist = 0, exitna = 0
#                 1912) hour =  9 || uni por =   64, khali =  436, iskhali = 1 | free por =  127, khali =   73, iskhali = 1 | janist = 0, exitna = 0
#                 1922) hour =  9 || uni por =   64, khali =  436, iskhali = 1 | free por =  128, khali =   72, iskhali = 1 | janist = 0, exitna = 0
#                 1932) hour =  9 || uni por =   64, khali =  436, iskhali = 1 | free por =  129, khali =   71, iskhali = 1 | janist = 0, exitna = 0
#                 1942) hour =  9 || uni por =   65, khali =  435, iskhali = 1 | free por =  129, khali =   71, iskhali = 1 | janist = 0, exitna = 0
#                 1952) hour =  9 || uni por =   65, khali =  435, iskhali = 1 | free por =  130, khali =   70, iskhali = 1 | janist = 0, exitna = 0
#                 1962) hour =  9 || uni por =   65, khali =  435, iskhali = 1 | free por =  131, khali =   69, iskhali = 1 | janist = 0, exitna = 0
#                 1972) hour =  9 || uni por =   66, khali =  434, iskhali = 1 | free por =  131, khali =   69, iskhali = 1 | janist = 0, exitna = 0
#                 1982) hour =  9 || uni por =   66, khali =  434, iskhali = 1 | free por =  132, khali =   68, iskhali = 1 | janist = 0, exitna = 0
#                 1992) hour =  9 || uni por =   66, khali =  434, iskhali = 1 | free por =  133, khali =   67, iskhali = 1 | janist = 0, exitna = 0
#                 2001) hour = 10 || uni por =   66, khali =  434, iskhali = 1 | free por =  133, khali =   67, iskhali = 1 | janist = 0, exitna = 0
#                 2002) hour = 10 || uni por =   67, khali =  433, iskhali = 1 | free por =  133, khali =   67, iskhali = 1 | janist = 0, exitna = 0
#                 2012) hour = 10 || uni por =   67, khali =  433, iskhali = 1 | free por =  134, khali =   66, iskhali = 1 | janist = 0, exitna = 0
#                 2022) hour = 10 || uni por =   67, khali =  433, iskhali = 1 | free por =  135, khali =   65, iskhali = 1 | janist = 0, exitna = 0
#                 2032) hour = 10 || uni por =   68, khali =  432, iskhali = 1 | free por =  135, khali =   65, iskhali = 1 | janist = 0, exitna = 0
#                 2042) hour = 10 || uni por =   68, khali =  432, iskhali = 1 | free por =  136, khali =   64, iskhali = 1 | janist = 0, exitna = 0
#                 2052) hour = 10 || uni por =   68, khali =  432, iskhali = 1 | free por =  137, khali =   63, iskhali = 1 | janist = 0, exitna = 0
#                 2062) hour = 10 || uni por =   69, khali =  431, iskhali = 1 | free por =  137, khali =   63, iskhali = 1 | janist = 0, exitna = 0
#                 2072) hour = 10 || uni por =   69, khali =  431, iskhali = 1 | free por =  138, khali =   62, iskhali = 1 | janist = 0, exitna = 0
#                 2082) hour = 10 || uni por =   69, khali =  431, iskhali = 1 | free por =  139, khali =   61, iskhali = 1 | janist = 0, exitna = 0
#                 2092) hour = 10 || uni por =   70, khali =  430, iskhali = 1 | free por =  139, khali =   61, iskhali = 1 | janist = 0, exitna = 0
#                 2102) hour = 10 || uni por =   70, khali =  430, iskhali = 1 | free por =  140, khali =   60, iskhali = 1 | janist = 0, exitna = 0
#                 2112) hour = 10 || uni por =   70, khali =  430, iskhali = 1 | free por =  141, khali =   59, iskhali = 1 | janist = 0, exitna = 0
#                 2122) hour = 10 || uni por =   71, khali =  429, iskhali = 1 | free por =  141, khali =   59, iskhali = 1 | janist = 0, exitna = 0
